<?xml version="1.0" encoding="UTF-8" standalone="no"?>
<!-- Created with Inkscape (http://www.inkscape.org/) -->

<svg
   xmlns:dc="http://purl.org/dc/elements/1.1/"
   xmlns:cc="http://creativecommons.org/ns#"
   xmlns:rdf="http://www.w3.org/1999/02/22-rdf-syntax-ns#"
   xmlns:svg="http://www.w3.org/2000/svg"
   xmlns="http://www.w3.org/2000/svg"
   xmlns:sodipodi="http://sodipodi.sourceforge.net/DTD/sodipodi-0.dtd"
   xmlns:inkscape="http://www.inkscape.org/namespaces/inkscape"
   width="16"
   height="16"
   id="svg3762"
   version="1.1"
   inkscape:version="0.48.4 r9939"
   sodipodi:docname="path.svg"
   inkscape:export-filename="C:\Users\baumgart\Desktop\id.png"
   inkscape:export-xdpi="124.41479"
   inkscape:export-ydpi="124.41479">
  <defs
     id="defs3764" />
  <sodipodi:namedview
     id="base"
     pagecolor="#ffffff"
     bordercolor="#666666"
     borderopacity="1.0"
     inkscape:pageopacity="0.0"
     inkscape:pageshadow="2"
     inkscape:zoom="44.8"
     inkscape:cx="6.1052666"
     inkscape:cy="6.6440445"
     inkscape:document-units="px"
     inkscape:current-layer="layer1"
     showgrid="false"
     showguides="true"
     inkscape:guide-bbox="true"
     inkscape:snap-bbox="true"
     inkscape:window-width="1600"
     inkscape:window-height="1138"
     inkscape:window-x="-8"
     inkscape:window-y="-8"
     inkscape:window-maximized="1" />
  <metadata
     id="metadata3767">
    <rdf:RDF>
      <cc:Work
         rdf:about="">
        <dc:format>image/svg+xml</dc:format>
        <dc:type
           rdf:resource="http://purl.org/dc/dcmitype/StillImage" />
        <dc:title></dc:title>
      </cc:Work>
    </rdf:RDF>
  </metadata>
  <g
     inkscape:label="Ebene 1"
     inkscape:groupmode="layer"
     id="layer1"
     transform="translate(0,-1036.3622)">
    <text
       xml:space="preserve"
       style="font-size:13.49032497000000000px;font-style:normal;font-weight:normal;line-height:125%;letter-spacing:0px;word-spacing:0px;fill:#57ad8f;fill-opacity:0.92156863;stroke:none;font-family:Sans"
       x="-0.47426927"
       y="1047.7944"
       id="text2991"
       sodipodi:linespacing="125%"
       inkscape:export-filename="C:\Users\baumgart\Desktop\var.png"
       inkscape:export-xdpi="90"
       inkscape:export-ydpi="90"><tspan
         sodipodi:role="line"
         id="tspan2993"
         x="-0.47426927"
         y="1047.7944"
         style="font-style:normal;font-variant:normal;font-weight:bold;font-stretch:normal;fill:#57ad8f;fill-opacity:0.92156863;font-family:Segoe UI;-inkscape-font-specification:Segoe UI Bold">c:\</tspan></text>
  </g>
</svg>
